,area_id,lat,lng,coord,id,parent_id
0,6,10.5215836,105.1258955,"(10.5215836, 105.1258955)",6,66.0
1,8,21.3014947,106.6291304,"(21.3014947, 106.6291304)",8,69.0
2,9,22.303292300000006,105.876004,"(22.303292300000006, 105.876004)",9,69.0
3,10,9.251555499999998,105.5136472,"(9.251555499999998, 105.5136472)",10,66.0
4,11,21.121444,106.1110501,"(21.121444, 106.1110501)",11,70.0
5,7,10.5417397,107.2429976,"(10.5417397, 107.2429976)",7,65.0
6,12,10.108155300000002,106.4405872,"(10.108155300000002, 106.4405872)",12,66.0
7,13,14.1665324,108.902683,"(14.1665324, 108.902683)",13,72.0
8,14,11.3254024,106.477017,"(11.3254024, 106.477017)",14,65.0
9,15,11.7511894,106.7234639,"(11.7511894, 106.7234639)",15,65.0
10,16,11.0903703,108.0720781,"(11.0903703, 108.0720781)",16,72.0
11,17,9.1526728,105.1960795,"(9.1526728, 105.1960795)",17,66.0
12,1,10.0451618,105.7468535,"(10.0451618, 105.7468535)",1,66.0
13,18,22.635689000000006,106.2522143,"(22.635689000000006, 106.2522143)",18,69.0
14,19,12.7100116,108.2377519,"(12.7100116, 108.2377519)",19,73.0
15,20,12.2646476,107.609806,"(12.2646476, 107.609806)",20,73.0
16,2,16.0544068,108.2021667,"(16.0544068, 108.2021667)",2,72.0
17,21,21.8042309,103.1076525,"(21.8042309, 103.1076525)",21,68.0
18,22,11.0686305,107.1675976,"(11.0686305, 107.1675976)",22,65.0
19,23,10.4937989,105.6881788,"(10.4937989, 105.6881788)",23,66.0
20,24,13.8078943,108.109375,"(13.8078943, 108.109375)",24,73.0
21,25,22.766205600000006,104.9388853,"(22.766205600000006, 104.9388853)",25,69.0
22,28,20.9373413,106.31455420000002,"(20.9373413, 106.31455420000002)",28,70.0
23,4,20.8449115,106.6880841,"(20.8449115, 106.6880841)",4,70.0
24,26,20.5835196,105.92298999999998,"(20.5835196, 105.92298999999998)",26,70.0
25,3,21.0277644,105.8341598,"(21.0277644, 105.8341598)",3,70.0
26,27,18.2943776,105.6745247,"(18.2943776, 105.6745247)",27,74.0
27,29,9.757898,105.6412527,"(9.757898, 105.6412527)",29,66.0
28,30,20.8275154,105.3390793,"(20.8275154, 105.3390793)",30,68.0
29,5,10.8230989,106.6296638,"(10.8230989, 106.6296638)",5,65.0
30,31,20.8525711,106.01699709999998,"(20.8525711, 106.01699709999998)",31,70.0
31,32,12.2585098,109.0526076,"(12.2585098, 109.0526076)",32,72.0
32,33,9.8249587,105.1258955,"(9.8249587, 105.1258955)",33,66.0
33,34,14.349740300000002,108.0004606,"(14.349740300000002, 108.0004606)",34,73.0
34,35,22.368661300000007,103.3119085,"(22.368661300000007, 103.3119085)",35,68.0
35,36,11.5752791,108.1428669,"(11.5752791, 108.1428669)",36,73.0
36,37,21.8563705,106.6291304,"(21.8563705, 106.6291304)",37,69.0
37,38,22.3380865,104.1487055,"(22.3380865, 104.1487055)",38,68.0
38,39,10.695572,106.2431205,"(10.695572, 106.2431205)",39,66.0
39,40,20.2791804,106.2051484,"(20.2791804, 106.2051484)",40,70.0
40,41,19.2342489,104.9200365,"(19.2342489, 104.9200365)",41,74.0
41,42,20.2506149,105.9744536,"(20.2506149, 105.9744536)",42,70.0
42,43,11.6738767,108.8629572,"(11.6738767, 108.8629572)",43,72.0
43,44,21.268443,105.2045573,"(21.268443, 105.2045573)",44,69.0
44,45,13.0881861,109.0928764,"(13.0881861, 109.0928764)",45,72.0
45,46,17.6102715,106.34874740000002,"(17.6102715, 106.34874740000002)",46,74.0
46,47,15.5393538,108.019102,"(15.5393538, 108.019102)",47,72.0
47,48,15.0759838,108.7125791,"(15.0759838, 108.7125791)",48,72.0
48,49,21.006382,107.2925144,"(21.006382, 107.2925144)",49,69.0
49,50,16.794347199999994,106.963409,"(16.794347199999994, 106.963409)",50,74.0
50,51,9.602521,105.9739049,"(9.602521, 105.9739049)",51,66.0
51,52,21.1022284,103.7289167,"(21.1022284, 103.7289167)",52,68.0
52,53,11.3351554,106.1098854,"(11.3351554, 106.1098854)",53,65.0
53,54,20.5386936,106.3934777,"(20.5386936, 106.3934777)",54,70.0
54,55,21.5671559,105.8252038,"(21.5671559, 105.8252038)",55,69.0
55,56,19.806692,105.7851816,"(19.806692, 105.7851816)",56,74.0
56,57,16.467397000000002,107.5905326,"(16.467397000000002, 107.5905326)",57,74.0
57,58,10.4493324,106.3420504,"(10.4493324, 106.3420504)",58,66.0
58,59,9.812741,106.2992912,"(9.812741, 106.2992912)",59,66.0
59,60,22.1726708,105.3131185,"(22.1726708, 105.3131185)",60,69.0
60,61,10.239574,105.9571928,"(10.239574, 105.9571928)",61,66.0
61,62,21.3608805,105.54743729999998,"(21.3608805, 105.54743729999998)",62,70.0
62,63,21.6837923,104.4551361,"(21.6837923, 104.4551361)",63,68.0
