order_id,is_cancelled,evan_booking_id,shipment_id,evan_shipment_id,truck_model_id,truck_quantity,truck_type_id,notes,order_created_at,cargo_types,cargo_weight,cargo_length,cargo_width,cargo_height,is_whole_truck,order_type,pickup_date,drop_date,pickup_area_id,drop_area_id,unit_price,bidder_type,driver_id,bid_price,bidding_status,market_id,route,duration,distance,internal_notes,truck_weight,cargo_weight_per_truck,distance_seg,cargo_seg,segment,price_per_km,price_per_km_per_ton,bid_count,timeview,reel_result
83392,False,16711.0,7086.0,,40,1,5,,2020-04-06T03:21:41.943527+00:00,Thực phẩm đóng gói ( đóng trong 1 palet = 1.2*1.2*1.4m),0.3,1.2,1.2,2.5,False,original_hybrid,2020-04-07T03:00:00.000000+00:00,,5,4,4407000.0,0,42920,2800000,1,5440,54,113291,1735055,"- Đã CK 100% cước\n- Ngày bốc: 10h ngày 07/4 ( nếu thay đổi cần báo trước tgian cụ thể)\n- Ngày dỡ: muộn nhất 14/4 ( thứ 3 tuần sau)\n- KH bốc- dỡ bằng xe nâng + bốc tay\n- Lưu ý: Giao trong giờ hành chính ( KO NHẬN ĐƯỢC CNHAT), THỨ 7 NHẬN ĐƯỢC TRƯỚC 16H. Khi đến bốc - dỡ liên hệ báo ""Our Home HCM gửi hàng cho Our Home Hải Phòng",15.0,0.3,1800,5,1800-5,2539.9771188809577,8466.59039626986,2,2020-04-06,"[{'distance_value': 1.0, 'driver_id': 42355}, {'distance_value': 1.0, 'driver_id': 15564}, {'distance_value': 0.983506404811507, 'driver_id': 26469}, {'distance_value': 0.9545055082639059, 'driver_id': 7911}, {'distance_value': 0.9231983493966823, 'driver_id': 12141}, {'distance_value': 0.8233659361203511, 'driver_id': 1721}, {'distance_value': 0.7740875245119294, 'driver_id': 32087}, {'distance_value': 0.7327552021317743, 'driver_id': 51129}, {'distance_value': 0.678325478521171, 'driver_id': 17733}, {'distance_value': 0.6762247593260153, 'driver_id': 40601}, {'distance_value': 0.632115618485725, 'driver_id': 33252}, {'distance_value': 0.6171403390608379, 'driver_id': 43024}, {'distance_value': 0.45402013004294356, 'driver_id': 26674}, {'distance_value': 0.4208061574651403, 'driver_id': 42920}, {'distance_value': 0.3788516498248729, 'driver_id': 4277}, {'distance_value': 0.29647611025262033, 'driver_id': 8840}, {'distance_value': 0.21966257123865957, 'driver_id': 44649}]"
83376,False,16701.0,7067.0,,79,1,5,,2020-04-06T02:26:14.231810+00:00,sợi,1.0,0.0,0.0,0.0,True,original_hybrid,2020-04-06T07:21:00.000000+00:00,,14,39,751000.0,0,54136,552000,1,143979,1439,5090,45343,"-\tYêu cầu: Điều xe ck 100% \n-\tID Order:83376\n-\tLấy hang: Khu công nghiệp Việt Hương, Đại lộ Bình Dương, Thuận Giao, Thuận An, Bình Dương, Việt Nam. Danh / 0941233294\n-\tTrả hang: Công ty Sun home.Đường Số 2, Đức Hòa Hạ, Đức Hòa, Long An. Thủy  / 0938065188\n-\tXe tải: Mui bạt 1.0 tấn | dài 3.4m x rộng 1.65m x cao 1.83m\n-\tHàng hóa: Sợi đóng bao\n-\tXe đến lấy hang 12h đến 13h chiều nay, trả hàng trước 4h30. ",1.0,1.0,50,5,50-5,16562.64473016783,16562.64473016783,4,2020-04-06,"[{'distance_value': 1.0, 'driver_id': 6265}, {'distance_value': 0.9926152182278025, 'driver_id': 27219}, {'distance_value': 0.985093121846517, 'driver_id': 17515}, {'distance_value': 0.9773637428917539, 'driver_id': 54136}, {'distance_value': 0.9590703239363295, 'driver_id': 15362}, {'distance_value': 0.9383059358596801, 'driver_id': 26023}, {'distance_value': 0.9377348169017647, 'driver_id': 52551}, {'distance_value': 0.8976032231648763, 'driver_id': 44178}, {'distance_value': 0.8771770071191555, 'driver_id': 50170}, {'distance_value': 0.8751894925435384, 'driver_id': 1721}, {'distance_value': 0.810109962463379, 'driver_id': 43168}, {'distance_value': 0.8005585019120391, 'driver_id': 35773}, {'distance_value': 0.7845621770957576, 'driver_id': 42355}, {'distance_value': 0.7840939160614069, 'driver_id': 9968}, {'distance_value': 0.7636229615252719, 'driver_id': 54310}, {'distance_value': 0.7530621531478393, 'driver_id': 5480}, {'distance_value': 0.7483124155690394, 'driver_id': 29440}, {'distance_value': 0.741028439937484, 'driver_id': 52001}, {'distance_value': 0.7391455056714646, 'driver_id': 40395}, {'distance_value': 0.7309216626795909, 'driver_id': 15951}, {'distance_value': 0.7253800500864828, 'driver_id': 16714}, {'distance_value': 0.7214595629464964, 'driver_id': 45786}, {'distance_value': 0.7172632526413942, 'driver_id': 40601}, {'distance_value': 0.7117757252057394, 'driver_id': 7911}, {'distance_value': 0.7028760356577066, 'driver_id': 1521}, {'distance_value': 0.6963610958115602, 'driver_id': 12774}, {'distance_value': 0.6950775626174438, 'driver_id': 15044}, {'distance_value': 0.6899556401852058, 'driver_id': 53444}, {'distance_value': 0.6766064224651749, 'driver_id': 49717}, {'distance_value': 0.6721975421904699, 'driver_id': 20565}, {'distance_value': 0.6690183854739818, 'driver_id': 4277}, {'distance_value': 0.6593649625697919, 'driver_id': 29362}, {'distance_value': 0.6549693209372112, 'driver_id': 43024}, {'distance_value': 0.6474490255030771, 'driver_id': 49195}, {'distance_value': 0.6405245424295625, 'driver_id': 32087}, {'distance_value': 0.6164372913695364, 'driver_id': 14815}, {'distance_value': 0.6002708326975504, 'driver_id': 21471}, {'distance_value': 0.5827897086192789, 'driver_id': 45736}, {'distance_value': 0.5653223911309756, 'driver_id': 7079}, {'distance_value': 0.564243590102294, 'driver_id': 36231}, {'distance_value': 0.5603096460340471, 'driver_id': 41586}, {'distance_value': 0.5591357327144298, 'driver_id': 2185}, {'distance_value': 0.5589177674392329, 'driver_id': 1547}, {'distance_value': 0.5544991454467336, 'driver_id': 34575}, {'distance_value': 0.5536073290180988, 'driver_id': 20187}, {'distance_value': 0.55042810168408, 'driver_id': 1905}, {'distance_value': 0.5482993946686866, 'driver_id': 36292}, {'distance_value': 0.5451871806496358, 'driver_id': 53381}, {'distance_value': 0.543966936941306, 'driver_id': 42920}, {'distance_value': 0.5434304526646931, 'driver_id': 29109}, {'distance_value': 0.5432038354305428, 'driver_id': 31440}, {'distance_value': 0.5396424310049368, 'driver_id': 49160}, {'distance_value': 0.5344102438135054, 'driver_id': 52460}, {'distance_value': 0.5330698583920797, 'driver_id': 53121}, {'distance_value': 0.5326096060744749, 'driver_id': 44349}, {'distance_value': 0.5315203695840677, 'driver_id': 53272}, {'distance_value': 0.5311679127263658, 'driver_id': 3957}, {'distance_value': 0.5310441749877829, 'driver_id': 6119}, {'distance_value': 0.5260358770076947, 'driver_id': 46369}, {'distance_value': 0.5200376273180207, 'driver_id': 12528}, {'distance_value': 0.5197972689612363, 'driver_id': 36464}, {'distance_value': 0.5197663773531758, 'driver_id': 48350}, {'distance_value': 0.5184844295168527, 'driver_id': 42113}, {'distance_value': 0.5161902152371235, 'driver_id': 2435}, {'distance_value': 0.5141440922419229, 'driver_id': 50159}, {'distance_value': 0.5132092089653015, 'driver_id': 11275}, {'distance_value': 0.5109452258745829, 'driver_id': 34252}, {'distance_value': 0.50714755318716, 'driver_id': 49300}, {'distance_value': 0.4987745333669166, 'driver_id': 8990}, {'distance_value': 0.4935099732081095, 'driver_id': 453}, {'distance_value': 0.48426708238511873, 'driver_id': 54047}, {'distance_value': 0.46789865863791424, 'driver_id': 53978}, {'distance_value': 0.466853676337811, 'driver_id': 50441}, {'distance_value': 0.46157159432167055, 'driver_id': 13743}, {'distance_value': 0.4602066471999837, 'driver_id': 48274}, {'distance_value': 0.45956542603174844, 'driver_id': 54009}, {'distance_value': 0.4510499503552384, 'driver_id': 16805}, {'distance_value': 0.4438838413556417, 'driver_id': 48229}, {'distance_value': 0.44235744550108935, 'driver_id': 45157}, {'distance_value': 0.4410513907109741, 'driver_id': 43779}, {'distance_value': 0.4409566101075165, 'driver_id': 49223}, {'distance_value': 0.43847487138121854, 'driver_id': 55013}, {'distance_value': 0.4304848082041688, 'driver_id': 23786}, {'distance_value': 0.4271248033841451, 'driver_id': 40827}, {'distance_value': 0.42393883577982583, 'driver_id': 41715}, {'distance_value': 0.42175994084685575, 'driver_id': 14254}, {'distance_value': 0.4216855459068481, 'driver_id': 12825}, {'distance_value': 0.42105387163162233, 'driver_id': 15564}, {'distance_value': 0.4200874081309979, 'driver_id': 29814}, {'distance_value': 0.41607139933822823, 'driver_id': 11650}, {'distance_value': 0.4104144425392151, 'driver_id': 45122}, {'distance_value': 0.40854244375228876, 'driver_id': 52210}, {'distance_value': 0.39489929540350704, 'driver_id': 8077}, {'distance_value': 0.38085573596882627, 'driver_id': 8356}, {'distance_value': 0.3800968488042164, 'driver_id': 36815}, {'distance_value': 0.37435768473861886, 'driver_id': 54729}, {'distance_value': 0.3726706177761476, 'driver_id': 10003}, {'distance_value': 0.36247991105032906, 'driver_id': 49074}, {'distance_value': 0.3613260768683493, 'driver_id': 40759}, {'distance_value': 0.3609096640888507, 'driver_id': 34328}, {'distance_value': 0.3556111717833452, 'driver_id': 10933}, {'distance_value': 0.3509270202318827, 'driver_id': 49039}, {'distance_value': 0.3404295810374399, 'driver_id': 50527}, {'distance_value': 0.3402340256047077, 'driver_id': 46948}, {'distance_value': 0.3357530793532888, 'driver_id': 53149}, {'distance_value': 0.3324773185999799, 'driver_id': 15116}, {'distance_value': 0.3288792730356416, 'driver_id': 2481}, {'distance_value': 0.3227355969232495, 'driver_id': 51558}, {'distance_value': 0.32060530394168296, 'driver_id': 51182}, {'distance_value': 0.3191575458844503, 'driver_id': 7380}, {'distance_value': 0.3178673826527424, 'driver_id': 17329}, {'distance_value': 0.31353229807386673, 'driver_id': 29245}, {'distance_value': 0.3123316799147581, 'driver_id': 52076}, {'distance_value': 0.30882431495903206, 'driver_id': 54559}, {'distance_value': 0.2995470717289448, 'driver_id': 52835}, {'distance_value': 0.2973918776696086, 'driver_id': 6366}, {'distance_value': 0.27611550038493227, 'driver_id': 52680}, {'distance_value': 0.27159696332613625, 'driver_id': 42168}, {'distance_value': 0.26039345491646004, 'driver_id': 26118}, {'distance_value': 0.24520093513232472, 'driver_id': 51141}, {'distance_value': 0.24348168004272652, 'driver_id': 39036}, {'distance_value': 0.24133677792549132, 'driver_id': 48057}, {'distance_value': 0.23789456115759705, 'driver_id': 54372}, {'distance_value': 0.23525164292662867, 'driver_id': 48191}, {'distance_value': 0.22789843324113046, 'driver_id': 47140}, {'distance_value': 0.22758792858142715, 'driver_id': 49942}, {'distance_value': 0.22018175091752934, 'driver_id': 25740}, {'distance_value': 0.21508621906753464, 'driver_id': 49930}, {'distance_value': 0.2030438866344461, 'driver_id': 7489}, {'distance_value': 0.1983600202075469, 'driver_id': 46608}, {'distance_value': 0.19362044774778836, 'driver_id': 8840}, {'distance_value': 0.1928034586583369, 'driver_id': 44221}, {'distance_value': 0.18784029822687065, 'driver_id': 51274}, {'distance_value': 0.18284088716344582, 'driver_id': 16305}, {'distance_value': 0.16494319351514178, 'driver_id': 1221}]"
83350,False,16693.0,7065.0,,79,1,5,15 Thùng xe đạp,2020-04-05T10:02:44.705539+00:00,15 Thùng xe đạp,0.3,0.0,0.0,0.0,True,original_hybrid,2020-04-06T06:00:00.000000+00:00,,22,5,821000.0,0,45736,600000,1,22579,225,3068,40178,- Đã CK 100% cước\n- Ngày bốc: 13h ngày 06/4 ( hoặc sớm hơn vẫn được)\n- Ngày dỡ: tầm trước 16h ngày 06/4,1.0,0.3,50,5,50-5,20434.06839563941,68113.56131879803,2,2020-04-05,"[{'distance_value': 1.0, 'driver_id': 6265}, {'distance_value': 1.0, 'driver_id': 29440}, {'distance_value': 0.9964393393198648, 'driver_id': 26023}, {'distance_value': 0.9795240514136343, 'driver_id': 27219}, {'distance_value': 0.9573618040819434, 'driver_id': 42355}, {'distance_value': 0.9429605852762858, 'driver_id': 17515}, {'distance_value': 0.8901359215416562, 'driver_id': 54136}, {'distance_value': 0.8787526677371922, 'driver_id': 15362}, {'distance_value': 0.7970836630665229, 'driver_id': 50170}, {'distance_value': 0.7120140288670858, 'driver_id': 44178}, {'distance_value': 0.7064761613210042, 'driver_id': 43168}, {'distance_value': 0.6781486565272012, 'driver_id': 1721}, {'distance_value': 0.6400700926169274, 'driver_id': 52001}, {'distance_value': 0.6243836304387952, 'driver_id': 54310}, {'distance_value': 0.6223412239038237, 'driver_id': 53444}, {'distance_value': 0.616297308889213, 'driver_id': 15044}, {'distance_value': 0.601257169531964, 'driver_id': 20187}, {'distance_value': 0.5997246175443176, 'driver_id': 16714}, {'distance_value': 0.586856137817735, 'driver_id': 12774}, {'distance_value': 0.5635308506536119, 'driver_id': 40395}, {'distance_value': 0.5575379044866904, 'driver_id': 40601}, {'distance_value': 0.49973574721106045, 'driver_id': 52551}, {'distance_value': 0.48549609823314505, 'driver_id': 35773}, {'distance_value': 0.48374144662140084, 'driver_id': 1521}, {'distance_value': 0.47777184276499624, 'driver_id': 5480}, {'distance_value': 0.4756920598389852, 'driver_id': 43024}, {'distance_value': 0.4566633223875878, 'driver_id': 46369}, {'distance_value': 0.451176113520013, 'driver_id': 16805}, {'distance_value': 0.4432794467607315, 'driver_id': 20565}, {'distance_value': 0.4318508665745616, 'driver_id': 34575}, {'distance_value': 0.4132327192715187, 'driver_id': 45786}, {'distance_value': 0.4120385496772905, 'driver_id': 8990}, {'distance_value': 0.40959864384502054, 'driver_id': 14815}, {'distance_value': 0.4031694979667664, 'driver_id': 15564}, {'distance_value': 0.3988172770525178, 'driver_id': 32087}, {'distance_value': 0.37899015818317755, 'driver_id': 45157}, {'distance_value': 0.3756719257648272, 'driver_id': 49300}, {'distance_value': 0.36126490777171205, 'driver_id': 34413}, {'distance_value': 0.3510036122004191, 'driver_id': 7911}, {'distance_value': 0.3472504808952036, 'driver_id': 45736}, {'distance_value': 0.34085090723047184, 'driver_id': 49160}, {'distance_value': 0.34084728966009226, 'driver_id': 6366}, {'distance_value': 0.3348017311732921, 'driver_id': 4277}, {'distance_value': 0.3280360343924987, 'driver_id': 44349}, {'distance_value': 0.32353421560923257, 'driver_id': 40827}, {'distance_value': 0.3160839795454857, 'driver_id': 7079}, {'distance_value': 0.3158805616128447, 'driver_id': 31440}, {'distance_value': 0.31289512578045, 'driver_id': 1547}, {'distance_value': 0.3121848660718694, 'driver_id': 49717}, {'distance_value': 0.3121765433503789, 'driver_id': 42920}, {'distance_value': 0.30052031588554384, 'driver_id': 29109}, {'distance_value': 0.29879646791488323, 'driver_id': 53272}, {'distance_value': 0.2955476137652262, 'driver_id': 1905}, {'distance_value': 0.29546492724337453, 'driver_id': 26118}, {'distance_value': 0.29396002887876704, 'driver_id': 29362}, {'distance_value': 0.290294622790215, 'driver_id': 53381}, {'distance_value': 0.2885827969710032, 'driver_id': 45122}, {'distance_value': 0.286712837836691, 'driver_id': 36292}, {'distance_value': 0.28342370715310056, 'driver_id': 36231}, {'distance_value': 0.2833167383506937, 'driver_id': 48350}, {'distance_value': 0.2812990330107641, 'driver_id': 3957}, {'distance_value': 0.27634999751891776, 'driver_id': 42113}, {'distance_value': 0.275491690733548, 'driver_id': 12528}, {'distance_value': 0.27540188589126935, 'driver_id': 52460}, {'distance_value': 0.274444875621602, 'driver_id': 41586}, {'distance_value': 0.273304665373944, 'driver_id': 2435}, {'distance_value': 0.2632537617826119, 'driver_id': 36464}, {'distance_value': 0.24922801995277402, 'driver_id': 50159}, {'distance_value': 0.24617985399564107, 'driver_id': 453}, {'distance_value': 0.24168599454294268, 'driver_id': 51129}, {'distance_value': 0.23666214639296562, 'driver_id': 11961}, {'distance_value': 0.23293485752741494, 'driver_id': 11275}, {'distance_value': 0.22700804897862945, 'driver_id': 54559}, {'distance_value': 0.22355641436576842, 'driver_id': 54009}, {'distance_value': 0.2218101800256036, 'driver_id': 25864}, {'distance_value': 0.21190603093564048, 'driver_id': 6363}, {'distance_value': 0.21137931887308753, 'driver_id': 53121}, {'distance_value': 0.20484499778483037, 'driver_id': 10933}, {'distance_value': 0.19202545793851217, 'driver_id': 51391}, {'distance_value': 0.18842896846216642, 'driver_id': 47435}, {'distance_value': 0.18553064034789332, 'driver_id': 21484}, {'distance_value': 0.16169498872756957, 'driver_id': 18889}]"
83261,False,16681.0,7062.0,,79,1,5,Xe thùng mui bạc 1.4 tấn,2020-04-04T02:05:26.366162+00:00,Tủ lạnh tivi đồ dùng nhà trọ linh tinh,1.0,0.0,0.0,0.0,True,original_hybrid,2020-04-04T08:00:00.000000+00:00,,22,22,749000.0,0,54136,551000,1,222279,2222,4590,48061,,1.0,1.0,50,5,50-5,15584.36154054223,15584.36154054223,4,2020-04-04,"[{'distance_value': 1.0, 'driver_id': 27219}, {'distance_value': 1.0, 'driver_id': 53444}, {'distance_value': 0.999880391025638, 'driver_id': 6265}, {'distance_value': 0.9859796209009317, 'driver_id': 15044}, {'distance_value': 0.9591847088153643, 'driver_id': 49300}, {'distance_value': 0.9391237869896543, 'driver_id': 44162}, {'distance_value': 0.9330166842877337, 'driver_id': 16805}, {'distance_value': 0.9000508801142374, 'driver_id': 26023}, {'distance_value': 0.8902117459930559, 'driver_id': 8990}, {'distance_value': 0.88904421043396, 'driver_id': 17515}, {'distance_value': 0.8671241468528377, 'driver_id': 42355}, {'distance_value': 0.8223392982175074, 'driver_id': 29440}, {'distance_value': 0.8017963019438588, 'driver_id': 45157}, {'distance_value': 0.7925645088193866, 'driver_id': 54136}, {'distance_value': 0.788537461590952, 'driver_id': 15362}, {'distance_value': 0.7815545066807045, 'driver_id': 10933}, {'distance_value': 0.780362173206789, 'driver_id': 54559}, {'distance_value': 0.7772491171783162, 'driver_id': 48274}, {'distance_value': 0.7145960004332628, 'driver_id': 50170}, {'distance_value': 0.7001380020777384, 'driver_id': 34615}, {'distance_value': 0.6525490950316509, 'driver_id': 45071}, {'distance_value': 0.6436442030126118, 'driver_id': 36034}, {'distance_value': 0.6330143462816874, 'driver_id': 47897}, {'distance_value': 0.6271630162540729, 'driver_id': 52898}, {'distance_value': 0.6127929582595826, 'driver_id': 44178}, {'distance_value': 0.5951246514320374, 'driver_id': 43168}, {'distance_value': 0.5711714892586299, 'driver_id': 46716}, {'distance_value': 0.567318985303243, 'driver_id': 1721}, {'distance_value': 0.5011486431798841, 'driver_id': 54310}, {'distance_value': 0.4763497580523335, 'driver_id': 16714}, {'distance_value': 0.47408738164820546, 'driver_id': 20187}, {'distance_value': 0.4714712344479389, 'driver_id': 52304}, {'distance_value': 0.4592072393710894, 'driver_id': 50203}, {'distance_value': 0.45647942136291114, 'driver_id': 12774}, {'distance_value': 0.45250423196244394, 'driver_id': 35773}, {'distance_value': 0.44491367610029614, 'driver_id': 40221}, {'distance_value': 0.44262173881693134, 'driver_id': 40601}, {'distance_value': 0.43617255354187023, 'driver_id': 45894}, {'distance_value': 0.42802358859623646, 'driver_id': 52001}, {'distance_value': 0.42566374136850404, 'driver_id': 46369}, {'distance_value': 0.41862259817123415, 'driver_id': 37488}, {'distance_value': 0.4119566920272338, 'driver_id': 5480}, {'distance_value': 0.4010253202120463, 'driver_id': 15564}, {'distance_value': 0.3797867531124408, 'driver_id': 10295}, {'distance_value': 0.3765359364819355, 'driver_id': 1521}, {'distance_value': 0.36031664038123173, 'driver_id': 43024}, {'distance_value': 0.35982904371533586, 'driver_id': 45786}, {'distance_value': 0.34877002398164825, 'driver_id': 20565}, {'distance_value': 0.34219992896389284, 'driver_id': 52824}, {'distance_value': 0.33583204460144045, 'driver_id': 45122}, {'distance_value': 0.3162019732045761, 'driver_id': 40395}, {'distance_value': 0.3042464904643086, 'driver_id': 14815}, {'distance_value': 0.29977830691425156, 'driver_id': 52551}, {'distance_value': 0.29839509158053273, 'driver_id': 26118}, {'distance_value': 0.29486990580808725, 'driver_id': 6366}, {'distance_value': 0.28532753784648457, 'driver_id': 29362}, {'distance_value': 0.2848927836602092, 'driver_id': 34575}, {'distance_value': 0.2520785524894419, 'driver_id': 45736}, {'distance_value': 0.24339061587901514, 'driver_id': 32087}, {'distance_value': 0.22678832974443364, 'driver_id': 49160}, {'distance_value': 0.216990661559951, 'driver_id': 7079}, {'distance_value': 0.2160492061957237, 'driver_id': 48081}, {'distance_value': 0.2140708743287725, 'driver_id': 42920}, {'distance_value': 0.21395757459992837, 'driver_id': 1547}, {'distance_value': 0.21380913833889312, 'driver_id': 49717}, {'distance_value': 0.2122772577277648, 'driver_id': 44349}, {'distance_value': 0.20833917930007004, 'driver_id': 31440}, {'distance_value': 0.20495245383749286, 'driver_id': 36231}, {'distance_value': 0.19539520653088888, 'driver_id': 29109}, {'distance_value': 0.1946743060496489, 'driver_id': 53272}, {'distance_value': 0.19466756325105583, 'driver_id': 53381}, {'distance_value': 0.1887590381159647, 'driver_id': 1905}, {'distance_value': 0.18294992868578747, 'driver_id': 3957}, {'distance_value': 0.17729179754207958, 'driver_id': 48350}, {'distance_value': 0.17480453616787522, 'driver_id': 4277}, {'distance_value': 0.17416950621635782, 'driver_id': 52460}, {'distance_value': 0.17212442169439396, 'driver_id': 12528}, {'distance_value': 0.1715352478496062, 'driver_id': 2435}, {'distance_value': 0.17122159910202026, 'driver_id': 18889}, {'distance_value': 0.17010719092686968, 'driver_id': 40827}, {'distance_value': 0.16988142591868663, 'driver_id': 36292}, {'distance_value': 0.16499744202133562, 'driver_id': 36464}, {'distance_value': 0.16419048619270324, 'driver_id': 53068}]"
83201,False,16660.0,7061.0,,79,1,5,,2020-04-03T08:12:34.503604+00:00,túi hút ẩm,0.8,0.0,0.0,0.0,True,original_hybrid,2020-04-04T01:00:00.000000+00:00,,14,39,737000.0,0,54259,542000,1,143979,1439,4326,43665,"Yêu cầu tài xế : Vui vẻ - nhiệt tình, gửi biên bản giao nhận đến kho Vĩnh Phú, sau khi giao xong hàng em nhé",1.0,0.8,50,5,50-5,16878.506813237145,21098.13351654643,11,2020-04-03,"[{'distance_value': 1.0, 'driver_id': 6265}, {'distance_value': 0.989538625146646, 'driver_id': 27219}, {'distance_value': 0.9861658067703247, 'driver_id': 17515}, {'distance_value': 0.9703812574384661, 'driver_id': 54136}, {'distance_value': 0.95257359902064, 'driver_id': 26023}, {'distance_value': 0.9488010396879775, 'driver_id': 15362}, {'distance_value': 0.8966173623402913, 'driver_id': 44178}, {'distance_value': 0.8728822937809394, 'driver_id': 50170}, {'distance_value': 0.8521714701652527, 'driver_id': 1721}, {'distance_value': 0.8053595716158548, 'driver_id': 43168}, {'distance_value': 0.79464155400086, 'driver_id': 9968}, {'distance_value': 0.7848699633607086, 'driver_id': 35773}, {'distance_value': 0.7823526329139339, 'driver_id': 42355}, {'distance_value': 0.7822408694913111, 'driver_id': 29440}, {'distance_value': 0.7453019838374362, 'driver_id': 54310}, {'distance_value': 0.7348404074041859, 'driver_id': 52551}, {'distance_value': 0.7282980948125366, 'driver_id': 16714}, {'distance_value': 0.7250078363092569, 'driver_id': 5480}, {'distance_value': 0.7102360844000695, 'driver_id': 52001}, {'distance_value': 0.7031094400398712, 'driver_id': 15951}, {'distance_value': 0.6997927310514085, 'driver_id': 40395}, {'distance_value': 0.6955129217164064, 'driver_id': 40601}, {'distance_value': 0.687978441883264, 'driver_id': 45786}, {'distance_value': 0.6812703453373737, 'driver_id': 1521}, {'distance_value': 0.6794670533196474, 'driver_id': 12774}, {'distance_value': 0.665550319699773, 'driver_id': 53444}, {'distance_value': 0.6632084491721618, 'driver_id': 15044}, {'distance_value': 0.6571131239248098, 'driver_id': 49195}, {'distance_value': 0.6568646470625388, 'driver_id': 29362}, {'distance_value': 0.6521761433282669, 'driver_id': 20565}, {'distance_value': 0.6378213143985424, 'driver_id': 4277}, {'distance_value': 0.637769903981899, 'driver_id': 43024}, {'distance_value': 0.6339872139703527, 'driver_id': 49717}, {'distance_value': 0.6039114746110625, 'driver_id': 14815}, {'distance_value': 0.6010268182754517, 'driver_id': 7911}, {'distance_value': 0.6005599261308869, 'driver_id': 32087}, {'distance_value': 0.5993865977923075, 'driver_id': 21471}, {'distance_value': 0.5615503881821655, 'driver_id': 45736}, {'distance_value': 0.5535378896069355, 'driver_id': 20187}, {'distance_value': 0.5423092421532624, 'driver_id': 2185}, {'distance_value': 0.5373664219562726, 'driver_id': 7079}, {'distance_value': 0.5354022932705271, 'driver_id': 36231}, {'distance_value': 0.5313648250042863, 'driver_id': 1547}, {'distance_value': 0.5308813427923174, 'driver_id': 41586}, {'distance_value': 0.5249339502041698, 'driver_id': 34575}, {'distance_value': 0.5223575082846486, 'driver_id': 31440}, {'distance_value': 0.5219710561289652, 'driver_id': 1905}, {'distance_value': 0.521380952932886, 'driver_id': 46369}, {'distance_value': 0.5210809336320045, 'driver_id': 36292}, {'distance_value': 0.5181275287025773, 'driver_id': 42920}, {'distance_value': 0.5170498342514038, 'driver_id': 29109}, {'distance_value': 0.5159618312233663, 'driver_id': 53381}, {'distance_value': 0.5159413865407307, 'driver_id': 11275}, {'distance_value': 0.5065322573823836, 'driver_id': 52460}, {'distance_value': 0.5041515061604023, 'driver_id': 53272}, {'distance_value': 0.5029274307139349, 'driver_id': 3957}, {'distance_value': 0.49846635030120146, 'driver_id': 49160}, {'distance_value': 0.49565651445307607, 'driver_id': 44349}, {'distance_value': 0.4949038920389711, 'driver_id': 6119}, {'distance_value': 0.49342504749548044, 'driver_id': 12528}, {'distance_value': 0.49248783219574166, 'driver_id': 2435}, {'distance_value': 0.4920262257242807, 'driver_id': 42113}, {'distance_value': 0.491426278591156, 'driver_id': 53121}, {'distance_value': 0.4903408521953876, 'driver_id': 36464}, {'distance_value': 0.49011157646129955, 'driver_id': 48350}, {'distance_value': 0.47963578446706134, 'driver_id': 50159}, {'distance_value': 0.4710106898305396, 'driver_id': 8990}, {'distance_value': 0.47044198226928713, 'driver_id': 15564}, {'distance_value': 0.470370357354482, 'driver_id': 34252}, {'distance_value': 0.4663395932515462, 'driver_id': 453}, {'distance_value': 0.4644264247357316, 'driver_id': 16805}, {'distance_value': 0.4561186946677299, 'driver_id': 53978}, {'distance_value': 0.4437939376831055, 'driver_id': 45122}, {'distance_value': 0.44348528496424355, 'driver_id': 40827}, {'distance_value': 0.44156440524973745, 'driver_id': 54541}, {'distance_value': 0.4390056993284781, 'driver_id': 54047}, {'distance_value': 0.43614814489961923, 'driver_id': 50441}, {'distance_value': 0.4346744270324707, 'driver_id': 54009}, {'distance_value': 0.43160810333644173, 'driver_id': 49300}, {'distance_value': 0.4264401199856822, 'driver_id': 13743}, {'distance_value': 0.4199845440614226, 'driver_id': 45157}, {'distance_value': 0.410642094357316, 'driver_id': 43779}, {'distance_value': 0.4051916377386404, 'driver_id': 55013}, {'distance_value': 0.3960790204183208, 'driver_id': 23786}, {'distance_value': 0.39504712588001817, 'driver_id': 49223}, {'distance_value': 0.38663932113566274, 'driver_id': 54729}, {'distance_value': 0.3856082917238435, 'driver_id': 6366}, {'distance_value': 0.3841349533398946, 'driver_id': 41715}, {'distance_value': 0.38024668557837277, 'driver_id': 8077}, {'distance_value': 0.3745791888873729, 'driver_id': 14254}, {'distance_value': 0.3739557558695475, 'driver_id': 52210}, {'distance_value': 0.36417381889167066, 'driver_id': 12825}, {'distance_value': 0.3614295681302357, 'driver_id': 36815}, {'distance_value': 0.35295085455414205, 'driver_id': 34328}, {'distance_value': 0.3458517633747883, 'driver_id': 11650}, {'distance_value': 0.34493426990509035, 'driver_id': 49039}, {'distance_value': 0.3408879407557627, 'driver_id': 50527}, {'distance_value': 0.33187188414437774, 'driver_id': 10003}, {'distance_value': 0.3204064784335404, 'driver_id': 20942}, {'distance_value': 0.31368785781788633, 'driver_id': 8356}, {'distance_value': 0.30321820406434336, 'driver_id': 40759}, {'distance_value': 0.30278307841354335, 'driver_id': 10933}, {'distance_value': 0.29985815795262655, 'driver_id': 48229}, {'distance_value': 0.29891141681589956, 'driver_id': 46948}, {'distance_value': 0.2977349739047947, 'driver_id': 51129}, {'distance_value': 0.297353543197275, 'driver_id': 15116}, {'distance_value': 0.2795981127034917, 'driver_id': 49074}, {'distance_value': 0.277945184992932, 'driver_id': 54559}, {'distance_value': 0.27556209195373726, 'driver_id': 17329}, {'distance_value': 0.27404536333252866, 'driver_id': 29245}, {'distance_value': 0.2736490628108541, 'driver_id': 53149}, {'distance_value': 0.2729681294148326, 'driver_id': 51182}, {'distance_value': 0.266378357298357, 'driver_id': 26118}, {'distance_value': 0.2622047456385866, 'driver_id': 51558}, {'distance_value': 0.25688013777570473, 'driver_id': 52076}, {'distance_value': 0.23752750649402965, 'driver_id': 11961}, {'distance_value': 0.23235680009361653, 'driver_id': 34413}, {'distance_value': 0.22902163973016987, 'driver_id': 29814}, {'distance_value': 0.22837341340382894, 'driver_id': 48057}, {'distance_value': 0.22701736634409972, 'driver_id': 52680}, {'distance_value': 0.2126160318392913, 'driver_id': 52835}, {'distance_value': 0.21163517749567362, 'driver_id': 6363}, {'distance_value': 0.20920118204752602, 'driver_id': 42168}, {'distance_value': 0.20784818935126687, 'driver_id': 25864}, {'distance_value': 0.1912030131816864, 'driver_id': 51391}, {'distance_value': 0.18968359656415107, 'driver_id': 47435}, {'distance_value': 0.18869289188303823, 'driver_id': 39036}, {'distance_value': 0.18699234491993516, 'driver_id': 21484}, {'distance_value': 0.18637965745327167, 'driver_id': 54372}]"
83141,False,16629.0,7051.0,,79,1,5,,2020-04-03T03:12:32.210297+00:00,vật dụng bằng gỗ ,1.0,0.0,0.0,0.0,True,original_hybrid,2020-04-03T06:00:00.000000+00:00,,5,5,769000.0,0,10933,566000,1,5579,55,5208,49323,KH muốn bốc hàng lúc 13h trưa nay,1.0,1.0,50,5,50-5,15591.103541958113,15591.103541958113,13,2020-04-03,"[{'distance_value': 1.0, 'driver_id': 6265}, {'distance_value': 0.9723502448399862, 'driver_id': 17515}, {'distance_value': 0.9489580806096395, 'driver_id': 26023}, {'distance_value': 0.9429760351814878, 'driver_id': 54136}, {'distance_value': 0.9228993445954584, 'driver_id': 15362}, {'distance_value': 0.8541428937911988, 'driver_id': 44178}, {'distance_value': 0.8443413050177659, 'driver_id': 50170}, {'distance_value': 0.7901445919672647, 'driver_id': 1721}, {'distance_value': 0.7748173096666854, 'driver_id': 29440}, {'distance_value': 0.7699536178906758, 'driver_id': 43168}, {'distance_value': 0.7159225885399993, 'driver_id': 35773}, {'distance_value': 0.7014769733788079, 'driver_id': 54310}, {'distance_value': 0.6925123601590637, 'driver_id': 16714}, {'distance_value': 0.6505344827358441, 'driver_id': 52001}, {'distance_value': 0.6432014656719554, 'driver_id': 27219}, {'distance_value': 0.635417830055589, 'driver_id': 40601}, {'distance_value': 0.6300945392306989, 'driver_id': 12774}, {'distance_value': 0.6151704830797342, 'driver_id': 1521}, {'distance_value': 0.6133729968161761, 'driver_id': 45786}, {'distance_value': 0.6058067363945276, 'driver_id': 40395}, {'distance_value': 0.5862116829553421, 'driver_id': 20565}, {'distance_value': 0.5820578376371848, 'driver_id': 29362}, {'distance_value': 0.5769116741858074, 'driver_id': 43024}, {'distance_value': 0.5381180795686431, 'driver_id': 14815}, {'distance_value': 0.533337776151481, 'driver_id': 20187}, {'distance_value': 0.5245369832699657, 'driver_id': 32087}, {'distance_value': 0.5187421616555207, 'driver_id': 4277}, {'distance_value': 0.5130293228240107, 'driver_id': 49717}, {'distance_value': 0.4909789854734761, 'driver_id': 45736}, {'distance_value': 0.46480011552424827, 'driver_id': 34575}, {'distance_value': 0.4587514717762189, 'driver_id': 7079}, {'distance_value': 0.4539124123908071, 'driver_id': 36231}, {'distance_value': 0.45357242972036715, 'driver_id': 41586}, {'distance_value': 0.45324469271694295, 'driver_id': 1547}, {'distance_value': 0.45320725208927726, 'driver_id': 49160}, {'distance_value': 0.4501824426082772, 'driver_id': 31440}, {'distance_value': 0.4485745706909501, 'driver_id': 42920}, {'distance_value': 0.44186996347251173, 'driver_id': 1905}, {'distance_value': 0.44048647594451906, 'driver_id': 29109}, {'distance_value': 0.43931234308797396, 'driver_id': 44349}, {'distance_value': 0.4359494501465535, 'driver_id': 53381}, {'distance_value': 0.4317472606248697, 'driver_id': 53272}, {'distance_value': 0.42673832732867273, 'driver_id': 52460}, {'distance_value': 0.42398088002678075, 'driver_id': 3957}, {'distance_value': 0.4215672663052877, 'driver_id': 11275}, {'distance_value': 0.42074413706711533, 'driver_id': 6366}, {'distance_value': 0.4194361808768737, 'driver_id': 2435}, {'distance_value': 0.4175612002049926, 'driver_id': 48350}, {'distance_value': 0.4166503907228669, 'driver_id': 12528}, {'distance_value': 0.41523219744211515, 'driver_id': 42113}, {'distance_value': 0.40993269627726625, 'driver_id': 36464}, {'distance_value': 0.40310508982212334, 'driver_id': 6119}, {'distance_value': 0.3975438129107157, 'driver_id': 40827}, {'distance_value': 0.39225954755147296, 'driver_id': 53121}, {'distance_value': 0.3873531912167867, 'driver_id': 50159}, {'distance_value': 0.38647811126708986, 'driver_id': 453}, {'distance_value': 0.3797185884256628, 'driver_id': 42355}, {'distance_value': 0.3773775747617086, 'driver_id': 15564}, {'distance_value': 0.36541917352595205, 'driver_id': 54541}, {'distance_value': 0.3585384340286255, 'driver_id': 54009}, {'distance_value': 0.35040955257415773, 'driver_id': 34252}, {'distance_value': 0.3475161909445641, 'driver_id': 46369}, {'distance_value': 0.341910717982861, 'driver_id': 50441}, {'distance_value': 0.33228329513818455, 'driver_id': 43779}, {'distance_value': 0.3196137712119976, 'driver_id': 54047}, {'distance_value': 0.31823690500268864, 'driver_id': 55013}, {'distance_value': 0.3107749226132457, 'driver_id': 13743}, {'distance_value': 0.2910468115949288, 'driver_id': 34328}, {'distance_value': 0.28930828483899435, 'driver_id': 41715}, {'distance_value': 0.28746863967587083, 'driver_id': 49223}, {'distance_value': 0.28509235977973624, 'driver_id': 36815}, {'distance_value': 0.277152547677358, 'driver_id': 52210}, {'distance_value': 0.27141093881686007, 'driver_id': 23786}, {'distance_value': 0.2643901185831381, 'driver_id': 14254}, {'distance_value': 0.2261994551390728, 'driver_id': 10003}, {'distance_value': 0.206847103163315, 'driver_id': 53978}, {'distance_value': 0.2022723722768605, 'driver_id': 8356}, {'distance_value': 0.18663375008819771, 'driver_id': 17329}, {'distance_value': 0.18155596003370034, 'driver_id': 52076}, {'distance_value': 0.17947290864159543, 'driver_id': 29245}, {'distance_value': 0.16663216977038256, 'driver_id': 46948}, {'distance_value': 0.1645219376881917, 'driver_id': 48057}]"
82965,False,16584.0,7043.0,,79,1,5,,2020-04-01T02:57:59.934066+00:00,Máy cắt đôi dừa,0.3,0.7,0.7,1.0,True,original_hybrid,2020-04-01T07:01:34.915999+00:00,,5,22,739000.0,0,52001,544000,1,52279,522,3203,31748,1.0 tấn | dài 3.4m x rộng 1.65m x cao 1.83m,1.0,0.3,50,5,50-5,23277.056822477007,77590.18940825669,13,2020-04-01,"[{'distance_value': 1.0, 'driver_id': 6265}, {'distance_value': 0.9842238874435425, 'driver_id': 17515}, {'distance_value': 0.9711446181933084, 'driver_id': 26023}, {'distance_value': 0.9610098178225807, 'driver_id': 54136}, {'distance_value': 0.9413748969954115, 'driver_id': 15362}, {'distance_value': 0.8676828835805257, 'driver_id': 44178}, {'distance_value': 0.8619662991367744, 'driver_id': 50170}, {'distance_value': 0.8468033823030181, 'driver_id': 27219}, {'distance_value': 0.8112454309463502, 'driver_id': 1721}, {'distance_value': 0.8105874477714421, 'driver_id': 29440}, {'distance_value': 0.7946600411732991, 'driver_id': 43168}, {'distance_value': 0.73421704216091, 'driver_id': 35773}, {'distance_value': 0.724665266359002, 'driver_id': 54310}, {'distance_value': 0.7204473683670206, 'driver_id': 16714}, {'distance_value': 0.6895270466193077, 'driver_id': 52001}, {'distance_value': 0.6605221143420881, 'driver_id': 40601}, {'distance_value': 0.6580576609627748, 'driver_id': 12774}, {'distance_value': 0.6369819087656168, 'driver_id': 1521}, {'distance_value': 0.6338650736899554, 'driver_id': 45786}, {'distance_value': 0.6321122529554002, 'driver_id': 40395}, {'distance_value': 0.6103094434737341, 'driver_id': 20565}, {'distance_value': 0.6026949547173727, 'driver_id': 43024}, {'distance_value': 0.6002924879311708, 'driver_id': 29362}, {'distance_value': 0.5850082105735408, 'driver_id': 42355}, {'distance_value': 0.5715551816296406, 'driver_id': 20187}, {'distance_value': 0.5649513166134715, 'driver_id': 32087}, {'distance_value': 0.5630109660483389, 'driver_id': 14815}, {'distance_value': 0.5558840013187084, 'driver_id': 4277}, {'distance_value': 0.5347753820827896, 'driver_id': 49717}, {'distance_value': 0.5161182378182434, 'driver_id': 45736}, {'distance_value': 0.49618037154129746, 'driver_id': 34575}, {'distance_value': 0.4848029788971894, 'driver_id': 49160}, {'distance_value': 0.48176830206160914, 'driver_id': 7079}, {'distance_value': 0.4808904305138242, 'driver_id': 41586}, {'distance_value': 0.47752250757386167, 'driver_id': 36231}, {'distance_value': 0.4765753414570756, 'driver_id': 1547}, {'distance_value': 0.47507731590946545, 'driver_id': 31440}, {'distance_value': 0.47186389354403846, 'driver_id': 42920}, {'distance_value': 0.46923904050110055, 'driver_id': 44349}, {'distance_value': 0.46567218429389234, 'driver_id': 1905}, {'distance_value': 0.4648404370943705, 'driver_id': 29109}, {'distance_value': 0.4582961255425191, 'driver_id': 53381}, {'distance_value': 0.4565527269588947, 'driver_id': 53272}, {'distance_value': 0.4503820991360254, 'driver_id': 52460}, {'distance_value': 0.44754605007171633, 'driver_id': 11275}, {'distance_value': 0.44740977708971813, 'driver_id': 3957}, {'distance_value': 0.4436489783596821, 'driver_id': 2435}, {'distance_value': 0.44264372879614866, 'driver_id': 48350}, {'distance_value': 0.4408033848787507, 'driver_id': 12528}, {'distance_value': 0.4389009038591989, 'driver_id': 42113}, {'distance_value': 0.4340992887203412, 'driver_id': 46369}, {'distance_value': 0.433343466220812, 'driver_id': 6366}, {'distance_value': 0.43307112003799825, 'driver_id': 36464}, {'distance_value': 0.4266520392100016, 'driver_id': 40827}, {'distance_value': 0.42561279710005706, 'driver_id': 6119}, {'distance_value': 0.41546731138229365, 'driver_id': 53121}, {'distance_value': 0.41529149981807983, 'driver_id': 53978}, {'distance_value': 0.4144123247464498, 'driver_id': 15564}, {'distance_value': 0.4120913043022155, 'driver_id': 50159}, {'distance_value': 0.4114129196802775, 'driver_id': 453}, {'distance_value': 0.39125470746277047, 'driver_id': 54541}, {'distance_value': 0.3843750607172648, 'driver_id': 54009}, {'distance_value': 0.3706336995947486, 'driver_id': 50441}, {'distance_value': 0.34911251757890416, 'driver_id': 43779}, {'distance_value': 0.34559300201326204, 'driver_id': 54047}, {'distance_value': 0.3435874558131847, 'driver_id': 55013}, {'distance_value': 0.3221645755012258, 'driver_id': 13743}, {'distance_value': 0.317738400532749, 'driver_id': 8077}, {'distance_value': 0.3152801726801847, 'driver_id': 34328}, {'distance_value': 0.3122795697690003, 'driver_id': 49223}, {'distance_value': 0.3120306681791941, 'driver_id': 41715}, {'distance_value': 0.30985970242818195, 'driver_id': 52210}, {'distance_value': 0.30402999718831064, 'driver_id': 36815}, {'distance_value': 0.30171329450368356, 'driver_id': 23786}, {'distance_value': 0.2956887825656747, 'driver_id': 52551}, {'distance_value': 0.2888879752795848, 'driver_id': 14254}, {'distance_value': 0.258029229518803, 'driver_id': 10003}, {'distance_value': 0.23292751012728807, 'driver_id': 33689}, {'distance_value': 0.210562180584306, 'driver_id': 29814}, {'distance_value': 0.2093558147096291, 'driver_id': 52076}, {'distance_value': 0.20278720739610795, 'driver_id': 8356}, {'distance_value': 0.20049679243851257, 'driver_id': 9968}, {'distance_value': 0.20037912754931325, 'driver_id': 17329}, {'distance_value': 0.19794750639516387, 'driver_id': 46948}, {'distance_value': 0.1974311851294577, 'driver_id': 40759}, {'distance_value': 0.19634688160970631, 'driver_id': 36292}, {'distance_value': 0.18782659894794104, 'driver_id': 29245}, {'distance_value': 0.18681496890385946, 'driver_id': 48057}, {'distance_value': 0.1594211998454558, 'driver_id': 15044}]"
83295,False,16704.0,7074.0,,38,1,5,35 khối\n,2020-04-04T08:44:42.184045+00:00,Túi giấy,8.0,0.0,0.0,0.0,True,original_hybrid,2020-04-07T00:30:00.000000+00:00,,5,5,1542000.0,0,38319,1100000,1,5538,55,3272,25420,"lần 1 k nghe máy lần 2 đã liên hệ tư vấn hướng dẫn loại xe phù hợp cho khách, khách ok đg đợi ck",10.0,8.0,50,10,50-10,60660.89693154996,7582.612116443744,1,2020-04-04,"[{'distance_value': 1.0, 'driver_id': 45412}, {'distance_value': 1.0, 'driver_id': 4179}, {'distance_value': 1.0, 'driver_id': 32087}, {'distance_value': 1.0, 'driver_id': 11275}, {'distance_value': 1.0, 'driver_id': 44349}, {'distance_value': 1.0, 'driver_id': 4277}, {'distance_value': 1.0, 'driver_id': 40601}, {'distance_value': 1.0, 'driver_id': 54047}, {'distance_value': 1.0, 'driver_id': 1721}, {'distance_value': 1.0, 'driver_id': 48229}, {'distance_value': 1.0, 'driver_id': 29362}, {'distance_value': 0.966831440990864, 'driver_id': 27219}, {'distance_value': 0.9592771690075755, 'driver_id': 33682}, {'distance_value': 0.9377670557072084, 'driver_id': 10003}, {'distance_value': 0.9107271674148071, 'driver_id': 15044}, {'distance_value': 0.8815848878224691, 'driver_id': 42589}, {'distance_value': 0.8636699010156538, 'driver_id': 47903}, {'distance_value': 0.860973537818392, 'driver_id': 32587}, {'distance_value': 0.8562758437000678, 'driver_id': 39532}, {'distance_value': 0.852286225799933, 'driver_id': 43024}, {'distance_value': 0.84479086497553, 'driver_id': 49195}, {'distance_value': 0.8263233934386228, 'driver_id': 45812}, {'distance_value': 0.8241396664961693, 'driver_id': 39954}, {'distance_value': 0.8142663517349564, 'driver_id': 42920}, {'distance_value': 0.8137216014536051, 'driver_id': 5480}, {'distance_value': 0.7910113910608004, 'driver_id': 46781}, {'distance_value': 0.7904427880588825, 'driver_id': 34413}, {'distance_value': 0.7645633620460256, 'driver_id': 37062}, {'distance_value': 0.7643746387163798, 'driver_id': 12693}, {'distance_value': 0.7567783247629801, 'driver_id': 15564}, {'distance_value': 0.751171059046136, 'driver_id': 42355}, {'distance_value': 0.7078768860499064, 'driver_id': 53321}, {'distance_value': 0.6883372913996378, 'driver_id': 48057}, {'distance_value': 0.6875677751926584, 'driver_id': 45157}, {'distance_value': 0.6792622648548908, 'driver_id': 38319}, {'distance_value': 0.6718259479816241, 'driver_id': 51397}, {'distance_value': 0.6579317700068156, 'driver_id': 8154}, {'distance_value': 0.6502016436258952, 'driver_id': 8201}, {'distance_value': 0.6124853310870438, 'driver_id': 20942}, {'distance_value': 0.6111491465895191, 'driver_id': 52270}, {'distance_value': 0.597883666674296, 'driver_id': 6309}, {'distance_value': 0.589021726734621, 'driver_id': 45794}, {'distance_value': 0.580497739378706, 'driver_id': 28542}, {'distance_value': 0.5752246157965017, 'driver_id': 2185}, {'distance_value': 0.5314820636480726, 'driver_id': 33213}, {'distance_value': 0.529490693695528, 'driver_id': 1233}, {'distance_value': 0.507704599983675, 'driver_id': 50660}, {'distance_value': 0.49881383043681404, 'driver_id': 619}, {'distance_value': 0.4617445511491922, 'driver_id': 16659}, {'distance_value': 0.42992136488210764, 'driver_id': 11223}, {'distance_value': 0.4232252688407898, 'driver_id': 40827}, {'distance_value': 0.40030792324684694, 'driver_id': 4223}, {'distance_value': 0.40017407744975486, 'driver_id': 33139}, {'distance_value': 0.3942247075708536, 'driver_id': 2559}, {'distance_value': 0.3936017143826368, 'driver_id': 11506}, {'distance_value': 0.3925155759836396, 'driver_id': 10506}, {'distance_value': 0.39173812182744344, 'driver_id': 40144}, {'distance_value': 0.3796956409017472, 'driver_id': 46716}, {'distance_value': 0.3493261181187458, 'driver_id': 26118}, {'distance_value': 0.3409940055211385, 'driver_id': 36563}, {'distance_value': 0.29763150893775425, 'driver_id': 27618}, {'distance_value': 0.2746068875724516, 'driver_id': 43618}, {'distance_value': 0.2708965731317067, 'driver_id': 36034}, {'distance_value': 0.26903672445533944, 'driver_id': 52304}, {'distance_value': 0.25944104305903115, 'driver_id': 32205}, {'distance_value': 0.2550579658349355, 'driver_id': 18889}, {'distance_value': 0.24716703899433834, 'driver_id': 51129}, {'distance_value': 0.2368845593134562, 'driver_id': 52653}, {'distance_value': 0.2228716066678365, 'driver_id': 53669}, {'distance_value': 0.2164908688251691, 'driver_id': 26633}, {'distance_value': 0.21322975075502726, 'driver_id': 6363}, {'distance_value': 0.20774405544436522, 'driver_id': 26469}, {'distance_value': 0.19653728119532266, 'driver_id': 13850}, {'distance_value': 0.1888817154097728, 'driver_id': 47435}, {'distance_value': 0.18337262117155545, 'driver_id': 8840}, {'distance_value': 0.17779110301254464, 'driver_id': 17796}, {'distance_value': 0.1740576471888408, 'driver_id': 55022}, {'distance_value': 0.15713793774914062, 'driver_id': 50771}]"
83198,False,16654.0,7059.0,,38,1,5,,2020-04-03T07:42:23.240907+00:00,giày dép,10.0,0.0,0.0,0.0,True,original_hybrid,2020-04-04T00:30:00.000000+00:00,,39,39,1452000.0,0,37062,1069000,1,393938,3939,525,4534,"10.0 tấn | dài 7.4m x rộng 2.3m x cao 2.624m\nĐỊA ĐIỂM ĐÓNG HÀNG : LO G2, STREET 8, TAN DO INDUSTRIAL PARK\nNGƯỜI LIÊN HỆ ĐÓNG HÀNG : 0933076330 ( anh Trung )\nĐỊA ĐIỂM DỠ HÀNG : LÔ I - 1A ĐƯỜNG SỐ 6, KCN TÂN ĐÔ , XÃ ĐỨC HÒA HẠ, HUYỆN ĐỨC HÒA, TỈNH LONG AN, VIỆT NAM ( CÔNG TY FURUN )\n0903122829 (chị tú ): bên kho dỡ hàng",10.0,10.0,50,15,50-15,320247.02249669173,32024.70224966917,3,2020-04-03,"[{'distance_value': 1.0, 'driver_id': 45412}, {'distance_value': 1.0, 'driver_id': 45812}, {'distance_value': 1.0, 'driver_id': 32087}, {'distance_value': 1.0, 'driver_id': 1721}, {'distance_value': 1.0, 'driver_id': 40601}, {'distance_value': 1.0, 'driver_id': 54047}, {'distance_value': 1.0, 'driver_id': 4277}, {'distance_value': 1.0, 'driver_id': 29362}, {'distance_value': 0.9552279165585836, 'driver_id': 15564}, {'distance_value': 0.9058497411451885, 'driver_id': 43024}, {'distance_value': 0.89739743953526, 'driver_id': 32587}, {'distance_value': 0.8966341486774848, 'driver_id': 39532}, {'distance_value': 0.8727700034165896, 'driver_id': 39954}, {'distance_value': 0.8656211744944254, 'driver_id': 53321}, {'distance_value': 0.8647143322978023, 'driver_id': 42920}, {'distance_value': 0.8602348347278943, 'driver_id': 46781}, {'distance_value': 0.8241915753682455, 'driver_id': 12693}, {'distance_value': 0.8226110341588084, 'driver_id': 37062}, {'distance_value': 0.8093150507609049, 'driver_id': 52653}, {'distance_value': 0.801916901555839, 'driver_id': 45794}, {'distance_value': 0.7581520131429037, 'driver_id': 48057}, {'distance_value': 0.7488070768983988, 'driver_id': 38319}, {'distance_value': 0.7346345560392691, 'driver_id': 28542}, {'distance_value': 0.7154813459714254, 'driver_id': 6309}, {'distance_value': 0.6813790451685587, 'driver_id': 40144}, {'distance_value': 0.6459904342064935, 'driver_id': 33213}, {'distance_value': 0.6449885220527649, 'driver_id': 8201}, {'distance_value': 0.5922248016993205, 'driver_id': 47210}, {'distance_value': 0.5726819660480303, 'driver_id': 619}, {'distance_value': 0.5135739137642364, 'driver_id': 49195}, {'distance_value': 0.5133727571142775, 'driver_id': 51129}, {'distance_value': 0.5044794520471932, 'driver_id': 43618}, {'distance_value': 0.4970521228407089, 'driver_id': 4223}, {'distance_value': 0.4672257265433828, 'driver_id': 10506}, {'distance_value': 0.4646211029077729, 'driver_id': 33139}, {'distance_value': 0.3940713456471761, 'driver_id': 10952}, {'distance_value': 0.393951692988543, 'driver_id': 11506}, {'distance_value': 0.38483881635594175, 'driver_id': 27618}, {'distance_value': 0.37542584106706334, 'driver_id': 34185}, {'distance_value': 0.3707093642158692, 'driver_id': 55022}, {'distance_value': 0.3505352605382828, 'driver_id': 46716}, {'distance_value': 0.2949849209174034, 'driver_id': 26633}, {'distance_value': 0.2450414741365925, 'driver_id': 8840}, {'distance_value': 0.24128331173179818, 'driver_id': 17796}, {'distance_value': 0.2297960852129911, 'driver_id': 34413}, {'distance_value': 0.22182237714381617, 'driver_id': 33252}, {'distance_value': 0.22043347867329915, 'driver_id': 53669}, {'distance_value': 0.21355618552624717, 'driver_id': 6363}, {'distance_value': 0.19030795521817329, 'driver_id': 47435}, {'distance_value': 0.17909162669100634, 'driver_id': 52304}, {'distance_value': 0.16194619477263408, 'driver_id': 50771}]"
83032,False,16608.0,7048.0,,38,1,5,,2020-04-01T09:41:43.508435+00:00,Gạch ốp lát,10.0,0.0,0.0,0.0,True,original_hybrid,2020-04-03T07:00:00.000000+00:00,,5,36,6111000.0,0,11506,4000000,1,53638,536,23824,316974,Địa điểm bốc hàng là nơi tập kết nhiều mặt hàng chở đi nên Tài xế phải kiểm hàng nhận đủ theo danh mục hàng này thì mới đi ,10.0,10.0,700,15,700-15,19279.18378163509,1927.9183781635086,6,2020-04-01,"[{'distance_value': 1.0, 'driver_id': 4277}, {'distance_value': 1.0, 'driver_id': 1721}, {'distance_value': 1.0, 'driver_id': 45412}, {'distance_value': 1.0, 'driver_id': 29362}, {'distance_value': 1.0, 'driver_id': 49195}, {'distance_value': 1.0, 'driver_id': 45812}, {'distance_value': 1.0, 'driver_id': 54047}, {'distance_value': 1.0, 'driver_id': 32087}, {'distance_value': 1.0, 'driver_id': 42355}, {'distance_value': 1.0, 'driver_id': 34413}, {'distance_value': 1.0, 'driver_id': 40601}, {'distance_value': 0.9964880398114523, 'driver_id': 15564}, {'distance_value': 0.9722521647144173, 'driver_id': 52270}, {'distance_value': 0.9640347015062968, 'driver_id': 8201}, {'distance_value': 0.953282122929891, 'driver_id': 7911}, {'distance_value': 0.9370410493214926, 'driver_id': 25769}, {'distance_value': 0.9365850323978717, 'driver_id': 26469}, {'distance_value': 0.9336964340209961, 'driver_id': 52653}, {'distance_value': 0.9295730368933035, 'driver_id': 28542}, {'distance_value': 0.9277357501657633, 'driver_id': 1233}, {'distance_value': 0.9247857383092245, 'driver_id': 13850}, {'distance_value': 0.914380158106486, 'driver_id': 18889}, {'distance_value': 0.9082255822859355, 'driver_id': 43024}, {'distance_value': 0.9000929602541525, 'driver_id': 32587}, {'distance_value': 0.8999618759952949, 'driver_id': 39532}, {'distance_value': 0.8827080795169104, 'driver_id': 46716}, {'distance_value': 0.8774058861406473, 'driver_id': 17733}, {'distance_value': 0.8765382090592898, 'driver_id': 39954}, {'distance_value': 0.8709218155543009, 'driver_id': 47210}, {'distance_value': 0.8674477588335673, 'driver_id': 53321}, {'distance_value': 0.8659610529514661, 'driver_id': 46781}, {'distance_value': 0.863711285467307, 'driver_id': 42920}, {'distance_value': 0.8408297938974527, 'driver_id': 52304}, {'distance_value': 0.8349928310712179, 'driver_id': 53068}, {'distance_value': 0.8284451615015666, 'driver_id': 12693}, {'distance_value': 0.8273475172558848, 'driver_id': 37062}, {'distance_value': 0.8070576034855671, 'driver_id': 45794}, {'distance_value': 0.8008445886870904, 'driver_id': 11506}, {'distance_value': 0.7628550182978312, 'driver_id': 48057}, {'distance_value': 0.7547843300175495, 'driver_id': 38319}, {'distance_value': 0.7237331123352051, 'driver_id': 6309}, {'distance_value': 0.6941267691922016, 'driver_id': 53707}, {'distance_value': 0.6843762647310893, 'driver_id': 40144}, {'distance_value': 0.6832194379170736, 'driver_id': 53669}, {'distance_value': 0.6702420387712251, 'driver_id': 50771}, {'distance_value': 0.6585103898415643, 'driver_id': 33213}, {'distance_value': 0.6472166634140685, 'driver_id': 34185}, {'distance_value': 0.6429327687606374, 'driver_id': 33252}, {'distance_value': 0.6132504187893696, 'driver_id': 54499}, {'distance_value': 0.5791436062470557, 'driver_id': 619}, {'distance_value': 0.5716737799499695, 'driver_id': 54738}, {'distance_value': 0.5565416863759358, 'driver_id': 10952}, {'distance_value': 0.5439871600468953, 'driver_id': 6031}, {'distance_value': 0.5270573547681172, 'driver_id': 32205}, {'distance_value': 0.5229950467134036, 'driver_id': 49876}, {'distance_value': 0.5092467308774036, 'driver_id': 43618}, {'distance_value': 0.5055998262657984, 'driver_id': 4223}, {'distance_value': 0.47237666060379746, 'driver_id': 10506}, {'distance_value': 0.4698338271166047, 'driver_id': 33139}, {'distance_value': 0.42461948520484205, 'driver_id': 13450}, {'distance_value': 0.3912042943947296, 'driver_id': 27618}, {'distance_value': 0.3767919188741232, 'driver_id': 55022}, {'distance_value': 0.3013583462421613, 'driver_id': 26633}, {'distance_value': 0.2991860271478852, 'driver_id': 44391}, {'distance_value': 0.29146080724398293, 'driver_id': 48860}, {'distance_value': 0.26755090069770815, 'driver_id': 42033}, {'distance_value': 0.2625493756135305, 'driver_id': 8942}, {'distance_value': 0.24699522860577328, 'driver_id': 51129}, {'distance_value': 0.24614317644355965, 'driver_id': 17796}, {'distance_value': 0.24482948028334134, 'driver_id': 8840}, {'distance_value': 0.22503822561362916, 'driver_id': 6363}, {'distance_value': 0.22150307623545326, 'driver_id': 15985}, {'distance_value': 0.18895706561487638, 'driver_id': 47435}]"
83181,False,16656.0,7084.0,,118,1,3,,2020-04-03T05:26:09.894857+00:00,Viên nén gỗ đựng trong 40 túi jumpo(700~750kg/túi),32.0,0.0,0.0,0.0,True,original_hybrid,2020-04-06T06:00:00.000000+00:00,,22,61,8878000.0,0,54999,7900000,1,2261118,2261,13519,174635, xe đau keo mui bạt mở  vách 2 bên xe cánh dơi-loại 4 cay chống khoảng giữa lên hàng cho dễ ,32.0,32.0,300,31,300-31,50837.460990065,1588.6706559395313,3,2020-04-03,"[{'distance_value': 1.0, 'driver_id': 42920}, {'distance_value': 1.0, 'driver_id': 43618}, {'distance_value': 1.0, 'driver_id': 46768}, {'distance_value': 1.0, 'driver_id': 49338}, {'distance_value': 1.0, 'driver_id': 6031}, {'distance_value': 1.0, 'driver_id': 8844}, {'distance_value': 0.995585704135083, 'driver_id': 44649}, {'distance_value': 0.9607930822046427, 'driver_id': 17796}, {'distance_value': 0.9592774205063049, 'driver_id': 13450}, {'distance_value': 0.9589866957053701, 'driver_id': 10506}, {'distance_value': 0.9312254241307577, 'driver_id': 13851}, {'distance_value': 0.9120458415349325, 'driver_id': 22567}, {'distance_value': 0.8532738431621407, 'driver_id': 8840}, {'distance_value': 0.8405139208818635, 'driver_id': 44391}, {'distance_value': 0.7150465737557217, 'driver_id': 30212}, {'distance_value': 0.3919269692103068, 'driver_id': 15888}, {'distance_value': 0.24874996488726683, 'driver_id': 387}]"
83129,False,16638.0,7054.0,,35,1,5,,2020-04-03T02:57:32.777575+00:00,thép cuộn,5.0,0.0,0.0,0.0,True,original_hybrid,2020-04-03T07:02:22.272000+00:00,,39,14,1384000.0,0,47903,1018000,1,391435,3914,5157,47623,"-\tYêu cầu: Điều xe chuyển khoản 100%\n-\tID Oder: 83129\n-\tNgười lấy hàng: Ngọc Dung +84968838516 - Cty thế dũng, Lô D10, Đường số 2, KCN Tân Đô,Đức Hòa Đông, Đức Hòa, Long An,\n-\t Nhận hàng: chị Thanh-84937273878 - Cty an ngãi, an phú, thuận an, bình dương. \n-\tXe mui bạt hở nóc cẩu hàng lên xuống .5.0 tấn | dài 4.25m x rộng 1.87m x cao 2.025m\n- Hàng hóa:thép cuộn 5 tấn\n-\tXe có mặt lấy hàng   14h30 ,  trả hàng buổi chiều tối. xe liên hệ chị Dung sớm để hướng dẫn đường vào kho và chuẩn bị cẩu trước. Sau khi lên hàng xong alo cho chị Thanh để thu xếp trả hàng chiều.",5.0,5.0,50,10,50-10,29061.58788820528,5812.317577641056,4,2020-04-03,"[{'distance_value': 1.0, 'driver_id': 54047}, {'distance_value': 1.0, 'driver_id': 4277}, {'distance_value': 1.0, 'driver_id': 5480}, {'distance_value': 1.0, 'driver_id': 40601}, {'distance_value': 1.0, 'driver_id': 32087}, {'distance_value': 1.0, 'driver_id': 1721}, {'distance_value': 1.0, 'driver_id': 47564}, {'distance_value': 1.0, 'driver_id': 45812}, {'distance_value': 1.0, 'driver_id': 48229}, {'distance_value': 0.9881084214846293, 'driver_id': 15564}, {'distance_value': 0.9750467382740803, 'driver_id': 44349}, {'distance_value': 0.96784996723648, 'driver_id': 49930}, {'distance_value': 0.9624890526055483, 'driver_id': 29362}, {'distance_value': 0.9617664467493693, 'driver_id': 11275}, {'distance_value': 0.9616693169927939, 'driver_id': 4179}, {'distance_value': 0.9493120562235514, 'driver_id': 29175}, {'distance_value': 0.9452206449531453, 'driver_id': 45412}, {'distance_value': 0.9435409260448802, 'driver_id': 27219}, {'distance_value': 0.9143860880860504, 'driver_id': 52322}, {'distance_value': 0.9079728367797363, 'driver_id': 53402}, {'distance_value': 0.8941912494969196, 'driver_id': 2435}, {'distance_value': 0.8815489481658063, 'driver_id': 10003}, {'distance_value': 0.8793632033339965, 'driver_id': 46608}, {'distance_value': 0.8729895115877351, 'driver_id': 33682}, {'distance_value': 0.8695427627563477, 'driver_id': 453}, {'distance_value': 0.8305361239426117, 'driver_id': 44725}, {'distance_value': 0.8023815926552766, 'driver_id': 44665}, {'distance_value': 0.7703914650835593, 'driver_id': 32587}, {'distance_value': 0.7675239315830634, 'driver_id': 39532}, {'distance_value': 0.7598171900697452, 'driver_id': 54970}, {'distance_value': 0.749875950689475, 'driver_id': 42920}, {'distance_value': 0.7470774712604432, 'driver_id': 43024}, {'distance_value': 0.7371472208920068, 'driver_id': 47903}, {'distance_value': 0.7347489240638244, 'driver_id': 42244}, {'distance_value': 0.7013300112088522, 'driver_id': 21471}, {'distance_value': 0.6988042115553734, 'driver_id': 39954}, {'distance_value': 0.6837616937002493, 'driver_id': 24069}, {'distance_value': 0.683021728483024, 'driver_id': 15044}, {'distance_value': 0.6739561335882498, 'driver_id': 2185}, {'distance_value': 0.6421884698112234, 'driver_id': 37062}, {'distance_value': 0.6391218681904187, 'driver_id': 46781}, {'distance_value': 0.6047723741531372, 'driver_id': 12693}, {'distance_value': 0.5953640789985657, 'driver_id': 53321}, {'distance_value': 0.5785853714942932, 'driver_id': 48057}, {'distance_value': 0.5760627042452494, 'driver_id': 8201}, {'distance_value': 0.5640778518359814, 'driver_id': 28542}, {'distance_value': 0.5636618900609792, 'driver_id': 53012}, {'distance_value': 0.5530833364511689, 'driver_id': 41195}, {'distance_value': 0.5251624030740885, 'driver_id': 45794}, {'distance_value': 0.5161718371383177, 'driver_id': 38319}, {'distance_value': 0.5133828944181882, 'driver_id': 51397}, {'distance_value': 0.5076777985890706, 'driver_id': 52653}, {'distance_value': 0.501879019989933, 'driver_id': 34328}, {'distance_value': 0.4984513348555051, 'driver_id': 49300}, {'distance_value': 0.48128636290482285, 'driver_id': 20904}, {'distance_value': 0.4638266200367267, 'driver_id': 49694}, {'distance_value': 0.4627377075401576, 'driver_id': 3957}, {'distance_value': 0.4549474108319166, 'driver_id': 11506}, {'distance_value': 0.42229193920175256, 'driver_id': 45157}, {'distance_value': 0.406722630182902, 'driver_id': 8154}, {'distance_value': 0.39691990381886094, 'driver_id': 52554}, {'distance_value': 0.3850642890930176, 'driver_id': 40144}, {'distance_value': 0.37806815598756505, 'driver_id': 38615}, {'distance_value': 0.3728078853289286, 'driver_id': 6309}, {'distance_value': 0.3577210929210467, 'driver_id': 619}, {'distance_value': 0.35534978421529134, 'driver_id': 36563}, {'distance_value': 0.3425959512207282, 'driver_id': 10933}, {'distance_value': 0.3416352599034386, 'driver_id': 33213}, {'distance_value': 0.339539652188619, 'driver_id': 47210}, {'distance_value': 0.33788520523625887, 'driver_id': 2559}, {'distance_value': 0.3368843439094054, 'driver_id': 50660}, {'distance_value': 0.3336480832736644, 'driver_id': 40878}, {'distance_value': 0.3294078352920043, 'driver_id': 16659}, {'distance_value': 0.2884508513283558, 'driver_id': 14504}, {'distance_value': 0.28507443830751134, 'driver_id': 34185}, {'distance_value': 0.2793068350340088, 'driver_id': 33139}, {'distance_value': 0.27026361832868656, 'driver_id': 10506}, {'distance_value': 0.2667108725706736, 'driver_id': 46885}, {'distance_value': 0.2599237910111745, 'driver_id': 40827}, {'distance_value': 0.23997029177347817, 'driver_id': 55001}, {'distance_value': 0.23497353506088256, 'driver_id': 33428}, {'distance_value': 0.22348877628187364, 'driver_id': 1262}, {'distance_value': 0.21993999091132896, 'driver_id': 43618}, {'distance_value': 0.20411621046066283, 'driver_id': 10952}, {'distance_value': 0.1518488974571228, 'driver_id': 7911}]"
83076,False,16614.0,7049.0,,34,1,5,,2020-04-02T04:01:10.271178+00:00,Thiết bị xây dựng,3.0,4.0,0.0,0.0,True,original_hybrid,2020-04-03T02:00:00.000000+00:00,,22,39,2785000.0,0,49930,2050000,1,223934,2239,6455,77772,- yêu cầu điều xe ck 100%\n- ID order: 83076\nLấy hàng: anh Lâm - 0919 402 287. Trả hàng: anh Nghi - 0917 549 700,3.5,3.0,300,5,300-5,35809.803013938166,11936.601004646058,29,2020-04-02,"[{'distance_value': 1.0, 'driver_id': 44178}, {'distance_value': 1.0, 'driver_id': 15044}, {'distance_value': 1.0, 'driver_id': 45122}, {'distance_value': 1.0, 'driver_id': 27219}, {'distance_value': 0.995675864439754, 'driver_id': 49300}, {'distance_value': 0.9768992557525635, 'driver_id': 1721}, {'distance_value': 0.9764285352169939, 'driver_id': 42355}, {'distance_value': 0.9399963268595517, 'driver_id': 8990}, {'distance_value': 0.930098598321279, 'driver_id': 32205}, {'distance_value': 0.9151162863756379, 'driver_id': 32087}, {'distance_value': 0.9058754417848198, 'driver_id': 15116}, {'distance_value': 0.8864702831904093, 'driver_id': 48229}, {'distance_value': 0.8804153711653098, 'driver_id': 40601}, {'distance_value': 0.8710972047488842, 'driver_id': 4277}, {'distance_value': 0.8539186965624491, 'driver_id': 21471}, {'distance_value': 0.8470179485706492, 'driver_id': 45157}, {'distance_value': 0.8422428006473834, 'driver_id': 49694}, {'distance_value': 0.8387245578439859, 'driver_id': 5480}, {'distance_value': 0.8316285198003792, 'driver_id': 47564}, {'distance_value': 0.8302829925828549, 'driver_id': 10933}, {'distance_value': 0.8157794962240041, 'driver_id': 49195}, {'distance_value': 0.8156156605202913, 'driver_id': 54047}, {'distance_value': 0.8082566709518433, 'driver_id': 39284}, {'distance_value': 0.802985811518811, 'driver_id': 44349}, {'distance_value': 0.7954554807345072, 'driver_id': 45436}, {'distance_value': 0.7874632914780764, 'driver_id': 29362}, {'distance_value': 0.7821655117344685, 'driver_id': 26118}, {'distance_value': 0.7747733643849691, 'driver_id': 18889}, {'distance_value': 0.7497990899832655, 'driver_id': 49930}, {'distance_value': 0.7485573185140157, 'driver_id': 36034}, {'distance_value': 0.7410252569867772, 'driver_id': 42920}, {'distance_value': 0.7394813766847372, 'driver_id': 38147}, {'distance_value': 0.7143463741938273, 'driver_id': 11275}, {'distance_value': 0.7123571794216991, 'driver_id': 12528}, {'distance_value': 0.7078531228375263, 'driver_id': 2435}, {'distance_value': 0.7067506183619344, 'driver_id': 48350}, {'distance_value': 0.6974030585289002, 'driver_id': 453}, {'distance_value': 0.6813645206761189, 'driver_id': 54541}, {'distance_value': 0.6775825273195902, 'driver_id': 29175}, {'distance_value': 0.6728148676839779, 'driver_id': 20942}, {'distance_value': 0.6682968448655153, 'driver_id': 4179}, {'distance_value': 0.6656032644581623, 'driver_id': 46608}, {'distance_value': 0.6637097035391782, 'driver_id': 34413}, {'distance_value': 0.6628575500489228, 'driver_id': 28542}, {'distance_value': 0.6626421482136171, 'driver_id': 10003}, {'distance_value': 0.6600157885750362, 'driver_id': 46716}, {'distance_value': 0.6583858275740162, 'driver_id': 52322}, {'distance_value': 0.645321315769568, 'driver_id': 43024}, {'distance_value': 0.6441196959202647, 'driver_id': 41195}, {'distance_value': 0.6420067583067869, 'driver_id': 52076}, {'distance_value': 0.6289689899469575, 'driver_id': 51182}, {'distance_value': 0.6090520398458792, 'driver_id': 52554}, {'distance_value': 0.6061214781444225, 'driver_id': 2185}, {'distance_value': 0.6008493537250812, 'driver_id': 36464}, {'distance_value': 0.5745221730890807, 'driver_id': 45412}, {'distance_value': 0.57380557568868, 'driver_id': 15564}, {'distance_value': 0.5711273512229482, 'driver_id': 20904}, {'distance_value': 0.5669623457264729, 'driver_id': 53402}, {'distance_value': 0.5520526412002074, 'driver_id': 17733}, {'distance_value': 0.5500067117682921, 'driver_id': 52304}, {'distance_value': 0.5431875295612438, 'driver_id': 40221}, {'distance_value': 0.531279449780782, 'driver_id': 53321}, {'distance_value': 0.5261651972019376, 'driver_id': 22406}, {'distance_value': 0.5166381441426106, 'driver_id': 41384}, {'distance_value': 0.5153964329076589, 'driver_id': 44725}, {'distance_value': 0.5086759001998009, 'driver_id': 54970}, {'distance_value': 0.5008391811497144, 'driver_id': 52824}, {'distance_value': 0.4980481255154493, 'driver_id': 11506}, {'distance_value': 0.4819941680615306, 'driver_id': 11223}, {'distance_value': 0.43742601161777955, 'driver_id': 32587}, {'distance_value': 0.43288380416234334, 'driver_id': 48057}, {'distance_value': 0.42707876707550435, 'driver_id': 53190}, {'distance_value': 0.424393671417331, 'driver_id': 44665}, {'distance_value': 0.4061176430384318, 'driver_id': 53669}, {'distance_value': 0.37672228455086576, 'driver_id': 1262}, {'distance_value': 0.37611780989883614, 'driver_id': 42244}, {'distance_value': 0.3740988334998647, 'driver_id': 33682}, {'distance_value': 0.3345271995862325, 'driver_id': 53068}, {'distance_value': 0.323021092260642, 'driver_id': 3957}, {'distance_value': 0.3126499009785044, 'driver_id': 46649}, {'distance_value': 0.31258368206053627, 'driver_id': 39532}, {'distance_value': 0.31160685959771844, 'driver_id': 51173}, {'distance_value': 0.3102592471114623, 'driver_id': 24344}, {'distance_value': 0.29458141932737436, 'driver_id': 44491}, {'distance_value': 0.2944650028196108, 'driver_id': 50771}, {'distance_value': 0.27542198890293806, 'driver_id': 39954}, {'distance_value': 0.26793897660573324, 'driver_id': 40144}, {'distance_value': 0.2629006978512757, 'driver_id': 24069}, {'distance_value': 0.2607436778584544, 'driver_id': 37062}, {'distance_value': 0.25517484060923257, 'driver_id': 36563}, {'distance_value': 0.2435915512712625, 'driver_id': 45794}, {'distance_value': 0.2427441429297129, 'driver_id': 51379}, {'distance_value': 0.2397954345517419, 'driver_id': 51129}, {'distance_value': 0.23740422075427123, 'driver_id': 34328}, {'distance_value': 0.2106649628903422, 'driver_id': 6363}, {'distance_value': 0.2104275803539219, 'driver_id': 25864}, {'distance_value': 0.19463933434628086, 'driver_id': 54738}, {'distance_value': 0.1882987323133322, 'driver_id': 47435}, {'distance_value': 0.17205105831078293, 'driver_id': 47226}, {'distance_value': 0.16747783389100956, 'driver_id': 27543}]"
82963,False,16582.0,7042.0,,102,1,5,,2020-04-01T02:51:09.055367+00:00,Ống nhựa,0.3,6.0,1.0,1.0,True,original_hybrid,2020-04-01T06:00:00.000000+00:00,,5,22,1466000.0,0,49074,1079000,1,522102,522,4975,49954,"- Khách chuyển khoản 100%\n- Nếu có xe qua sớm thì càng tốt, thời gian nhận hàng bên đầu nhận là trước 13h hoặc sau 14h30 mới nhận được hàng\n- Khách có bốc xếp hai đầu\n- Yêu cầu thùng xe dài 6m, đúng giờ ",7.0,0.3,50,5,50-5,29346.99923930016,97823.33079766721,4,2020-04-01,"[{'distance_value': 0.9979652318017669, 'driver_id': 27219}, {'distance_value': 0.9183160359064737, 'driver_id': 1721}, {'distance_value': 0.8730632117589315, 'driver_id': 15564}, {'distance_value': 0.8269397880970903, 'driver_id': 42355}, {'distance_value': 0.7578553071674055, 'driver_id': 40601}, {'distance_value': 0.7240317838033987, 'driver_id': 4277}, {'distance_value': 0.7162191314371256, 'driver_id': 15044}, {'distance_value': 0.709990080295519, 'driver_id': 32087}, {'distance_value': 0.7031674226044802, 'driver_id': 29362}, {'distance_value': 0.6675861123076904, 'driver_id': 5480}, {'distance_value': 0.6387617252709615, 'driver_id': 43024}, {'distance_value': 0.6018867570910457, 'driver_id': 42920}, {'distance_value': 0.5951056721679198, 'driver_id': 44349}, {'distance_value': 0.5681655869602122, 'driver_id': 54047}, {'distance_value': 0.5549158703486124, 'driver_id': 48229}, {'distance_value': 0.5256438678717099, 'driver_id': 49300}, {'distance_value': 0.4631210417747498, 'driver_id': 11275}, {'distance_value': 0.4600001223313811, 'driver_id': 45157}, {'distance_value': 0.4518002540638368, 'driver_id': 10003}, {'distance_value': 0.43100305135564093, 'driver_id': 49930}, {'distance_value': 0.4156990482949868, 'driver_id': 34328}, {'distance_value': 0.3744270667049659, 'driver_id': 10933}, {'distance_value': 0.3443304541579711, 'driver_id': 46608}, {'distance_value': 0.34039304421752226, 'driver_id': 2185}, {'distance_value': 0.29592186721165975, 'driver_id': 48057}, {'distance_value': 0.2881191462191721, 'driver_id': 49195}, {'distance_value': 0.27792262477962326, 'driver_id': 8840}, {'distance_value': 0.2581726820326194, 'driver_id': 4179}, {'distance_value': 0.19927293570836385, 'driver_id': 40827}]"
82949,True,16577.0,,,34,1,5,,2020-04-01T01:52:51.181860+00:00,Ống nhựa,1.0,4.0,1.0,1.0,True,original_hybrid,2020-04-01T06:00:00.000000+00:00,,5,22,1285000.0,0,34615,946000,0,52234,522,4975,49954,"- Khách chuyển khoản 100%\n- Nếu có xe qua sớm thì càng tốt, thời gian nhận hàng bên đầu nhận là trước 13h hoặc sau 14h30 mới nhận được hàng\n- Khách có bốc xếp hai đầu\n- Yêu cầu đúng kích thước xe, đúng giờ ",3.5,1.0,50,5,50-5,25723.665772510707,25723.665772510707,17,2020-04-01,"[{'distance_value': 0.9882291111009307, 'driver_id': 27219}, {'distance_value': 0.9330785169601441, 'driver_id': 1721}, {'distance_value': 0.9133441144625345, 'driver_id': 44178}, {'distance_value': 0.8952076011450697, 'driver_id': 15116}, {'distance_value': 0.8422182054519654, 'driver_id': 15564}, {'distance_value': 0.7794720771781433, 'driver_id': 15044}, {'distance_value': 0.7765824905093854, 'driver_id': 40601}, {'distance_value': 0.7577327731124389, 'driver_id': 5480}, {'distance_value': 0.7490480518977795, 'driver_id': 4277}, {'distance_value': 0.7489065792500444, 'driver_id': 42355}, {'distance_value': 0.7405456067110261, 'driver_id': 32087}, {'distance_value': 0.7269149690305237, 'driver_id': 16714}, {'distance_value': 0.7163726329723188, 'driver_id': 29362}, {'distance_value': 0.6468021822628367, 'driver_id': 14815}, {'distance_value': 0.6314949256620952, 'driver_id': 43024}, {'distance_value': 0.6306200070055155, 'driver_id': 44349}, {'distance_value': 0.628173696870963, 'driver_id': 42920}, {'distance_value': 0.6250173424718828, 'driver_id': 41586}, {'distance_value': 0.6156056176821391, 'driver_id': 48229}, {'distance_value': 0.6096213127890189, 'driver_id': 54047}, {'distance_value': 0.6086362073257608, 'driver_id': 48350}, {'distance_value': 0.6027293493263702, 'driver_id': 49195}, {'distance_value': 0.6008315509771787, 'driver_id': 49300}, {'distance_value': 0.5934452860511918, 'driver_id': 8990}, {'distance_value': 0.5886280696576, 'driver_id': 12528}, {'distance_value': 0.585598769719108, 'driver_id': 53272}, {'distance_value': 0.5791958017023233, 'driver_id': 2435}, {'distance_value': 0.568508510907491, 'driver_id': 453}, {'distance_value': 0.5553063387218768, 'driver_id': 36464}, {'distance_value': 0.5401222748430399, 'driver_id': 54541}, {'distance_value': 0.536786422252655, 'driver_id': 41715}, {'distance_value': 0.5313526365708916, 'driver_id': 49930}, {'distance_value': 0.5229875725952418, 'driver_id': 3957}, {'distance_value': 0.5216391156882366, 'driver_id': 38147}, {'distance_value': 0.5211498188404244, 'driver_id': 45157}, {'distance_value': 0.5203877189838589, 'driver_id': 22406}, {'distance_value': 0.5112561162949555, 'driver_id': 2185}, {'distance_value': 0.4912010879516602, 'driver_id': 11275}, {'distance_value': 0.4911919703851462, 'driver_id': 10003}, {'distance_value': 0.48487970156293864, 'driver_id': 51558}, {'distance_value': 0.47489852727273174, 'driver_id': 49942}, {'distance_value': 0.4545588081151986, 'driver_id': 47564}, {'distance_value': 0.43749537413752626, 'driver_id': 52076}, {'distance_value': 0.43258341795338917, 'driver_id': 10933}, {'distance_value': 0.4259634177868724, 'driver_id': 41195}, {'distance_value': 0.42467965992989143, 'driver_id': 51141}, {'distance_value': 0.4178678833317585, 'driver_id': 46608}, {'distance_value': 0.4131864144944802, 'driver_id': 34328}, {'distance_value': 0.40714146305969956, 'driver_id': 20904}, {'distance_value': 0.4028674126650056, 'driver_id': 51182}, {'distance_value': 0.3958164340680951, 'driver_id': 54028}, {'distance_value': 0.3854821176528931, 'driver_id': 21471}, {'distance_value': 0.3419892302211468, 'driver_id': 4179}, {'distance_value': 0.3293258996009827, 'driver_id': 48057}, {'distance_value': 0.32325228930519845, 'driver_id': 17063}, {'distance_value': 0.2916996450213494, 'driver_id': 54970}, {'distance_value': 0.2767274367909315, 'driver_id': 11506}, {'distance_value': 0.26242370971271756, 'driver_id': 45412}, {'distance_value': 0.23704875194159947, 'driver_id': 44725}, {'distance_value': 0.22270110689886563, 'driver_id': 52322}, {'distance_value': 0.19000116416532073, 'driver_id': 53402}, {'distance_value': 0.17437366639456003, 'driver_id': 54220}, {'distance_value': 0.1546567232608795, 'driver_id': 8201}, {'distance_value': 0.15151496243476867, 'driver_id': 4568}]"
